<?xml version="1.0" encoding="utf-8"?>
<svg version="1.1" id="圖層_1" xmlns="http://www.w3.org/2000/svg" xmlns:xlink="http://www.w3.org/1999/xlink" x="0px" y="0px"
	 viewBox="0 0 45 45" style="enable-background:new 0 0 45 45;" xml:space="preserve">
<style type="text/css">
	.st0{fill:#fff;}
</style>
<title>Artboard 3</title>
<desc>Created with Sketch.</desc>
<g id="layer1" transform="translate(-373.64 -318.34)">
	<path id="path4776" class="st0" d="M393.8,340.7c0,5-3.7,9-8.3,9c-4.6,0-8.3-4-8.3-9c0-5,3.7-9,8.3-9
		C390.1,331.7,393.8,335.7,393.8,340.7z"/>
	<path id="path4778" class="st0" d="M415.1,340.6c0,4.9-3.8,8.9-8.6,8.9c-4.7,0-8.6-4-8.6-8.9c0-4.9,3.8-8.9,8.6-8.9
		C411.3,331.7,415.1,335.7,415.1,340.6z"/>
</g>
</svg>
